<?xml version="1.0" encoding="UTF-8" standalone="no"?>
<svg
   version="1.1"
   id="svg194"
   sodipodi:docname="rapporteur01.svg"
   width="660"
   height="390"
   inkscape:version="1.1.1 (3bf5ae0d25, 2021-09-20)"
   xmlns:inkscape="http://www.inkscape.org/namespaces/inkscape"
   xmlns:sodipodi="http://sodipodi.sourceforge.net/DTD/sodipodi-0.dtd"
   xmlns="http://www.w3.org/2000/svg"
   xmlns:svg="http://www.w3.org/2000/svg">
  <defs
     id="defs198" />
  <sodipodi:namedview
     id="namedview196"
     pagecolor="#ffffff"
     bordercolor="#666666"
     borderopacity="1.0"
     inkscape:pageshadow="2"
     inkscape:pageopacity="0.0"
     inkscape:pagecheckerboard="0"
     showgrid="false"
     inkscape:zoom="1.1841667"
     inkscape:cx="339.47924"
     inkscape:cy="367.34694"
     inkscape:window-width="1680"
     inkscape:window-height="1050"
     inkscape:window-x="0"
     inkscape:window-y="0"
     inkscape:window-maximized="1"
     inkscape:current-layer="svg194" />
  <g
     id="layer1">
    <circle
       fill="#00ffff"
       opacity="0.00100002"
       cx="340"
       cy="350"
       r="15"
       id="centre"
       style="stroke-width:3" />
    <path
       fill="#00ffff"
       fill-opacity="0.3"
       stroke-opacity="1"
       stroke-width="2.4"
       d="M 10,350 H 40 A 300,300 0 0 1 340,50.000009 300,300 0 0 1 640,350 h 30 v 90 H 10 Z m 540,0 A 210,210 0 0 0 340,140.00001 210,210 0 0 0 130,350 h 180 a 30,30 0 0 1 30,-30 30,30 0 0 1 30,30 z"
       id="path12" />
    <path
       stroke-opacity="1"
       stroke-width="0.9"
       stroke="#000000"
       fill="none"
       d="m 325,350 h 30 m -15,-15 v 30 m -15,-15 a 15,15 0 0 1 15,-15 15,15 0 0 1 15,15 15,15 0 0 1 -15,15 15,15 0 0 1 -15,-15"
       id="path14" />
    <path
       id="rotation_handle"
       style="opacity:0.1;fill:#ffff00;stroke-width:3"
       d="M 340,55 A 295.00001,295.00001 0 0 0 45,350 H 10 v 90 H 670 V 350 H 635 A 295.00001,295.00001 0 0 0 340,55 Z m 0,75 A 220.00001,220.00001 0 0 1 560,350 H 120 A 220.00001,220.00001 0 0 1 340,130 Z" />
    <path
       stroke-width="1.2"
       stroke-opacity="1"
       stroke="#000000"
       d="m 640,350 h -24 m 23.95431,-5.23572 -13.49796,0.2355 m 13.36089,-5.46975 -13.49178,0.47115 m 13.26339,-5.7021 -13.48149,0.70656 m 13.16187,-5.93271 -13.46712,0.94173 m 13.0563,-6.16149 -13.44864,1.1766 m 12.9468,-6.38844 -13.42605,1.41114 m 12.83334,-6.61338 -13.39938,1.64523 m 12.71595,-6.83637 -13.36863,1.87884 m 12.59469,-7.05726 -13.33377,2.11188 m 12.46962,-7.27599 -23.63541,4.16757 m 22.68123,-9.31581 -13.25196,2.57592 m 12.20808,-7.70673 -13.20498,2.8068 m 12.07173,-7.91862 -13.15401,3.03684 m 11.93169,-8.12808 -13.09899,3.26595 m 11.78802,-8.33508 -13.03998,3.49404 m 11.64075,-8.53956 -12.97704,3.72111 m 11.48997,-8.7414 -12.91014,3.94701 m 11.33565,-8.9406 -12.83925,4.17174 m 11.17788,-9.1371 -12.76452,4.39518 m 11.01672,-9.33075 -22.55262,8.20848 m 20.71896,-13.11282 -12.60333,4.83795 m 10.68438,-9.70956 -12.51699,5.05719 m 10.51329,-9.89454 -12.42684,5.27487 m 10.33902,-10.07652 -12.33288,5.49093 m 10.16157,-10.25544 -12.23517,5.70537 m 9.98103,-10.43121 -12.13371,5.91801 m 9.79746,-10.60383 -12.02859,6.12888 m 9.61092,-10.77321 -11.91978,6.33789 m 9.42141,-10.93929 -11.80737,6.54492 M 599.80762,200 l -20.7846,12 m 18.12717,-16.51142 -11.57175,6.953 m 8.83599,-11.41736 -11.44866,7.15391 m 8.63541,-11.56984 -11.32206,7.35263 m 8.43216,-11.71879 -11.19201,7.5491 m 8.22633,-11.86416 -11.05854,7.74328 m 8.01804,-12.00592 -10.92174,7.93509 m 7.80729,-12.14403 -10.78158,8.12451 m 7.59417,-12.27844 -10.63815,8.31143 m 7.37871,-12.40911 -10.49148,8.49583 m 7.161,-12.53599 -18.38505,15.4269 m 14.98461,-19.40833 -10.1886,8.8568 m 6.71916,-12.77827 -10.03245,9.03326 m 6.49512,-12.89359 -9.87327,9.20698 m 6.2691,-13.00498 -9.71109,9.37789 m 6.04119,-13.11241 -9.54594,9.54594 m 5.81142,-13.21585 -9.37791,9.71109 m 5.57991,-13.31526 -9.207,9.87327 m 5.34666,-13.41061 -9.03327,10.03246 m 5.11179,-13.50188 -8.85678,10.18858 m 4.87536,-13.58904 -15.4269,18.38506 m 11.38674,-21.71552 -8.49582,10.49147 m 4.39815,-13.7509 -8.31144,10.63814 m 4.15749,-13.82557 -8.12451,10.78158 m 3.9156,-13.89603 -7.93512,10.92173 m 3.67245,-13.96224 -7.74327,11.05855 m 3.42822,-14.02421 -7.54911,11.19201 m 3.18294,-14.081911 -7.35261,11.322051 m 2.9367,-14.13531 -7.15392,11.44865 m 2.68956,-14.18441 -6.95301,11.57176 M 490,90.19238 478,110.97699 m 7.44288,-23.362903 -6.54492,11.807367 m 1.94352,-14.305731 -6.33789,11.919792 m 1.69356,-14.337471 -6.12888,12.028587 m 1.44306,-14.364846 -5.91801,12.133722 m 1.19217,-14.387844 -5.70537,12.235155 m 0.94086,-14.406456 -5.49093,12.332865 m 0.68928,-14.420682 -5.27487,12.426813 m 0.43752,-14.430513 -5.05719,12.516981 m 0.1857,-14.435955 -4.83795,12.603336 m -0.0663,-14.436993 -8.20848,22.552623 m 3.27291,-24.300411 -4.39518,12.764502 m -0.57018,-14.425884 -4.17174,12.839265 m -0.82185,-14.413737 -3.94701,12.910116 m -1.07328,-14.397198 -3.72111,12.977034 m -1.32441,-14.376273 -3.49404,13.040001 m -1.57509,-14.350971 -3.26595,13.098993 m -1.82529,-14.321292 -3.03684,13.153995 m -2.07498,-14.287257 -2.8068,13.204992 m -2.32401,-14.248866 -2.57592,13.251966 m -2.57232,-14.206137 -4.16757,23.635386 m -0.99654,-24.499563 -2.11188,13.333791 m -3.06654,-14.10771 -1.87884,13.368618 m -3.3123,-14.052042 -1.64523,13.399374 m -3.55701,-13.992099 -1.41114,13.426047 m -3.8007,-13.927887 -1.1766,13.448628 m -4.04316,-13.859433 -0.94173,13.467114 m -4.28442,-13.786758 -0.70656,13.481496 m -4.52439,-13.709886 -0.47115,13.491777 m -4.76298,-13.628838 -0.2355,13.497945 M 340,50 v 24 m -5.23572,-23.95431 0.2355,13.497945 m -5.46975,-13.360884 0.47115,13.491777 m -5.7021,-13.263387 0.70656,13.481496 m -5.93271,-13.161852 0.94173,13.467114 m -6.16149,-13.056309 1.1766,13.448628 m -6.38844,-12.946788 1.41114,13.426047 m -6.61338,-12.833322 1.64523,13.399374 m -6.83637,-12.71595 1.87884,13.368618 m -7.05726,-12.594699 2.11188,13.333791 m -7.27599,-12.469614 4.16757,23.635386 m -9.31581,-22.681215 2.57592,13.251966 m -7.70673,-12.208092 2.8068,13.204992 m -7.91861,-12.07173 3.03684,13.153995 m -8.12809,-11.931696 3.26595,13.098993 m -8.33509,-11.788023 3.49405,13.040001 m -8.53955,-11.640762 3.72111,12.977034 m -8.74141,-11.489952 3.94702,12.910116 m -8.94061,-11.335644 4.17173,12.839265 m -9.13707,-11.177883 4.39516,12.764502 m -9.33076,-11.016714 8.20848,22.552623 m -13.11282,-20.718966 4.83796,12.603336 m -9.70956,-10.684362 5.05719,12.516981 m -9.89455,-10.513281 5.27487,12.426813 m -10.07652,-10.338996 5.49094,12.332865 m -10.25543,-10.161564 5.70535,12.235155 m -10.43121,-9.981033 5.91801,12.133722 m -10.60382,-9.797463 6.12887,12.028587 m -10.77319,-9.610908 6.33787,11.919792 m -10.93929,-9.421428 6.54493,11.807367 M 190,90.19238 l 12,20.78461 m -16.51142,-18.12718 6.95301,11.57176 m -11.41737,-8.836 7.15391,11.44865 m -11.56984,-8.635391 7.35263,11.322051 m -11.71879,-8.43215 7.5491,11.19201 m -11.86416,-8.22635 7.74328,11.05855 m -12.00592,-8.01804 7.93509,10.92173 m -12.14403,-7.80728 8.12451,10.78158 m -12.27844,-7.59415 8.31143,10.63814 m -12.40911,-7.37871 8.49583,10.49147 m -12.53599,-7.16101 15.4269,18.38506 m -19.40833,-14.9846 8.8568,10.18858 m -12.77827,-6.71916 9.03326,10.03246 m -12.89359,-6.49512 9.20698,9.87327 m -13.00498,-6.2691 9.37789,9.71109 m -13.11241,-6.04118 9.54594,9.54594 m -13.21585,-5.81142 9.71109,9.37789 m -13.31526,-5.57989 9.87327,9.20698 m -13.41061,-5.34665 10.03246,9.03326 m -13.50188,-5.11179 10.18858,8.8568 m -13.58904,-4.87537 18.38506,15.4269 m -21.71552,-11.38674 10.49147,8.49583 m -13.7509,-4.39815 10.63814,8.31143 m -13.82557,-4.1575 10.78158,8.12451 m -13.896027,-3.91557 10.921727,7.93509 m -13.962242,-3.67245 11.058552,7.74328 m -14.024211,-3.42822 11.192011,7.5491 m -14.081911,-3.18294 11.322054,7.35263 m -14.135313,-2.9367 11.448651,7.15391 m -14.184411,-2.68955 11.571759,6.953 M 80.19238,200 l 20.78461,12 m -23.362903,-7.44288 11.807367,6.54492 m -14.305731,-1.94352 11.919792,6.33789 m -14.337471,-1.69356 12.028587,6.12888 m -14.364846,-1.44306 12.133722,5.91801 m -14.387844,-1.19217 12.235155,5.70537 m -14.406456,-0.94086 12.332865,5.49093 m -14.420682,-0.68928 12.426813,5.27487 m -14.430513,-0.43752 12.516981,5.05719 m -14.435955,-0.1857 12.603336,4.83795 m -14.436993,0.0663 22.552623,8.20848 m -24.300411,-3.27291 12.764502,4.39518 m -14.425884,0.57018 12.839265,4.17174 m -14.413737,0.82185 12.910116,3.94701 m -14.397198,1.07328 12.977034,3.72111 m -14.376273,1.32441 13.040001,3.49404 m -14.350971,1.57509 13.098993,3.26595 m -14.321292,1.82529 13.153995,3.03684 m -14.287257,2.07498 13.204992,2.8068 m -14.248866,2.32401 13.251966,2.57592 m -14.206137,2.57232 23.635386,4.16757 m -24.499563,0.99654 13.333791,2.11188 m -14.10771,3.06654 13.368618,1.87884 m -14.052042,3.3123 13.399374,1.64523 m -13.992099,3.55701 13.426047,1.41114 m -13.927887,3.8007 13.448628,1.1766 m -13.859433,4.04316 13.467114,0.94173 m -13.786758,4.28442 13.481496,0.70656 m -13.709886,4.52439 13.491777,0.47115 m -13.628838,4.76298 13.497945,0.2355 M 40,350 h 24 m 486,0 h 24 m -24.03198,-3.66501 13.49793,-0.2355 m -13.59387,-3.42828 13.49178,-0.47115 m -13.65165,-3.19053 13.48149,-0.70653 m -13.70526,-2.95176 13.46712,-0.94173 m -13.75467,-2.71212 13.44864,-1.1766 m -13.79994,-2.47167 13.42605,-1.41114 m -13.84095,-2.23044 13.39938,-1.64526 m -13.87779,-1.98855 13.36863,-1.87884 m -13.91037,-1.74603 13.3338,-2.11188 m -13.93872,-1.503 23.63538,-4.16757 m -24.3033,0.56379 13.25199,-2.57592 m -13.9827,-1.01565 13.20501,-2.8068 m -13.9983,-0.77145 13.15401,-3.03684 m -14.00961,-0.52704 13.09899,-3.26595 m -14.01666,-0.2826 13.03998,-3.49407 m -14.01945,-0.0378 12.97704,-3.72111 m -14.01801,0.207 12.91011,-3.94701 m -14.01222,0.4515 12.83925,-4.17174 m -14.00223,0.696 12.76449,-4.39518 m -13.98795,0.94026 22.55262,-8.20848 m -23.83617,4.77543 12.60333,-4.83795 m -13.94661,1.42785 12.51699,-5.05719 m -13.91958,1.67103 12.42681,-5.27487 m -13.88829,1.9137 12.33288,-5.49093 m -13.85277,2.1558 12.23514,-5.70534 m -13.81305,2.39724 12.13374,-5.91801 m -13.7691,2.63796 12.02859,-6.12888 m -13.72098,2.87784 11.91981,-6.33786 m -13.66866,3.11688 11.80737,-6.54495 M 521.86534,245 l 20.7846,-12 m -22.64481,8.84199 11.57175,-6.95301 m -13.48677,3.82797 11.44863,-7.15392 m -13.41792,4.06278 11.32206,-7.35264 m -13.34499,4.29633 11.19201,-7.54911 m -13.26798,4.52856 11.05857,-7.74327 m -13.18692,4.75941 10.92174,-7.93509 m -13.10184,4.98885 10.78158,-8.12451 m -13.0128,5.21676 10.63815,-8.31144 m -12.91974,5.44305 10.49145,-8.49582 m -12.82278,5.66772 18.38508,-15.42691 m -20.7654,12.63991 10.18857,-8.85681 m -12.61716,6.11178 10.03245,-9.03327 m -12.50859,6.33102 9.87327,-9.20696 m -12.39618,6.54836 9.71109,-9.37788 m -12.28005,6.76374 9.54597,-9.54596 m -12.16011,6.97701 9.37788,-9.71109 m -12.03648,7.18817 9.20697,-9.87327 m -11.90922,7.39714 9.03327,-10.03246 m -11.7783,7.60386 8.85681,-10.18858 m -11.64381,7.80826 15.4269,-18.38507 m -18.255,16.05375 8.49582,-10.49147 m -11.36421,8.20986 8.31144,-10.63814 m -11.21919,8.40694 8.12451,-10.78158 m -11.07075,8.60147 7.93509,-10.92173 m -10.91895,8.79337 7.74327,-11.05855 m -10.76382,8.98259 7.54911,-11.19201 m -10.60542,9.16908 7.35264,-11.32205 m -10.44378,9.35277 7.15392,-11.44865 m -10.27896,9.53362 6.95301,-11.57176 M 445,168.13467 457,147.35006 m -15.18999,18.9798 6.54495,-11.80736 m -9.76593,10.0585 6.33786,-11.91979 m -9.5889,10.22742 6.12888,-12.02859 m -9.40893,10.39321 5.91801,-12.13372 m -9.22611,10.55583 5.70534,-12.23515 m -9.04047,10.71524 5.49093,-12.33286 m -8.8521,10.87139 5.27487,-12.42682 m -8.66103,11.02423 5.05719,-12.51698 m -8.46729,11.1737 4.83795,-12.60334 m -8.271,11.31978 8.20848,-22.55262 m -11.6634,21.32917 4.39518,-12.7645 m -7.87092,11.60153 4.17174,-12.83926 m -7.66725,11.73713 3.94701,-12.91011 m -7.46124,11.86915 3.72111,-12.97703 m -7.25295,11.99757 3.49407,-13.04 m -7.04247,12.12232 3.26595,-13.099 m -6.82983,12.24338 3.03684,-13.15399 m -6.61509,12.36071 2.8068,-13.20499 m -6.39837,12.47428 2.57592,-13.25197 m -6.1797,12.58405 4.16757,-23.63539 m -7.78245,23.03047 2.11188,-13.33379 m -5.73675,12.79204 1.87884,-13.36861 m -5.51265,12.89022 1.64526,-13.39937 m -5.28684,12.98446 1.41114,-13.42604 m -5.05941,13.07475 1.1766,-13.44863 m -4.83045,13.16107 0.94173,-13.46712 m -4.60002,13.24337 0.70653,-13.4815 m -4.36821,13.32163 0.47115,-13.49178 m -4.13502,13.39583 0.2355,-13.49794 M 340,140 v -24 m -3.66501,24.03198 -0.2355,-13.49794 m -3.42828,13.59389 -0.47115,-13.49178 m -3.19053,13.65165 -0.70653,-13.4815 m -2.95176,13.70525 -0.94173,-13.46712 m -2.71212,13.75468 -1.1766,-13.44863 m -2.47167,13.79992 -1.41114,-13.42604 m -2.23044,13.84095 -1.64526,-13.39937 m -1.98855,13.87776 -1.87884,-13.36861 m -1.74603,13.91036 -2.11188,-13.33379 m -1.503,13.93871 -4.16757,-23.63539 m 0.56379,24.30331 -2.57592,-13.25197 m -1.01565,13.98268 -2.8068,-13.20499 m -0.77145,13.99827 -3.03684,-13.15399 m -0.52704,14.00961 -3.26595,-13.099 m -0.2823,14.01668 -3.49407,-13.04 m -0.0378,14.01946 -3.72112,-12.97703 m 0.20688,14.01799 -3.94702,-12.91011 m 0.45151,14.01224 -4.17173,-12.83926 m 0.69599,14.00223 -4.39518,-12.7645 m 0.94026,13.98795 -8.20849,-22.55262 m 4.77545,23.83618 -4.83797,-12.60334 m 1.42785,13.94662 -5.05719,-12.51698 m 1.67104,13.91957 -5.27487,-12.42682 m 1.91371,13.88829 -5.49094,-12.33286 m 2.1558,13.85278 -5.70534,-12.23516 m 2.39724,13.81304 -5.91801,-12.13372 m 2.63794,13.7691 -6.12887,-12.02859 m 2.87785,13.72096 -6.33786,-11.91979 m 3.11687,13.66865 -6.54493,-11.80736 M 235,168.13467 223,147.35006 m 8.842,22.64481 -6.95301,-11.57176 m 3.82797,13.48679 -7.15392,-11.44865 m 4.06276,13.41793 -7.35262,-11.32205 m 4.29631,13.34498 -7.5491,-11.19201 m 4.52856,13.26797 -7.74329,-11.05855 m 4.75944,13.18691 -7.9351,-10.92173 m 4.98884,13.10184 -8.1245,-10.78157 m 5.21675,13.01277 -8.31143,-10.63814 m 5.44306,12.91975 -8.49583,-10.49147 m 5.66771,12.82279 -15.4269,-18.38507 m 12.6399,20.76539 -8.85679,-10.18858 m 6.11176,12.61718 -9.03326,-10.03246 m 6.33103,12.50859 -9.20697,-9.87327 m 6.54837,12.39619 -9.37789,-9.71108 m 6.76372,12.28003 -9.54594,-9.54596 m 6.97701,12.1601 -9.71109,-9.37788 m 7.18817,12.03648 -9.87327,-9.20696 m 7.39714,11.90921 -10.03246,-9.03327 m 7.60386,11.7783 -10.18858,-8.85681 m 7.80826,11.64381 -18.38507,-15.42691 m 16.05375,18.25501 -10.49147,-8.49582 m 8.20986,11.36421 -10.63814,-8.31144 m 8.40694,11.21919 -10.78158,-8.12451 m 8.60147,11.07075 L 159.1847,218.63 m 8.79337,10.91895 -11.05855,-7.74327 m 8.98259,10.76382 -11.19201,-7.54911 m 9.16908,10.60542 -11.32205,-7.35264 m 9.35277,10.44378 -11.44865,-7.15392 m 9.53362,10.27896 -11.57176,-6.95301 M 158.13467,245 137.35006,233 m 18.9798,15.18999 -11.80736,-6.54495 m 10.0585,9.76593 -11.91979,-6.33786 m 10.22742,9.5889 -12.02859,-6.12888 m 10.39321,9.40893 -12.13372,-5.91801 m 10.55583,9.22611 -12.23515,-5.70534 m 10.71524,9.04047 -12.33286,-5.49093 m 10.87139,8.8521 -12.42682,-5.27487 m 11.02423,8.66103 -12.51698,-5.05719 m 11.1737,8.46729 -12.60334,-4.83795 m 11.31978,8.271 -22.55262,-8.20848 m 21.32917,11.6634 -12.7645,-4.39518 m 11.60153,7.87092 -12.83926,-4.17174 m 11.73713,7.66725 -12.91011,-3.94701 m 11.86915,7.46124 -12.97703,-3.72111 m 11.99757,7.25295 -13.04,-3.49407 m 12.12232,7.04247 -13.099,-3.26595 m 12.24339,6.82983 -13.154,-3.03684 m 12.36071,6.61509 -13.20499,-2.8068 m 12.47428,6.39837 -13.25196,-2.57592 m 12.58404,6.1797 -23.63538,-4.16757 m 23.03046,7.78245 -13.33379,-2.11188 m 12.79205,5.73675 -13.36862,-1.87884 m 12.89022,5.51265 -13.39937,-1.64526 m 12.98446,5.28684 -13.42604,-1.41114 m 13.07475,5.05941 -13.44862,-1.1766 m 13.16106,4.83045 -13.46712,-0.94173 m 13.24337,4.60002 -13.4815,-0.70653 m 13.32163,4.36821 -13.49178,-0.47115 m 13.39583,4.13502 -13.49794,-0.2355 M 130,350 h -24 m -66,90 v -24 m 3,24 v -13.5 m 3,13.5 v -13.5 m 3,13.5 v -13.5 m 3,13.5 v -13.5 m 3,13.5 v -13.5 m 3,13.5 v -13.5 m 3,13.5 v -13.5 m 3,13.5 v -13.5 m 3,13.5 v -13.5 m 3,13.5 v -24 m 3,24 v -13.5 m 3,13.5 v -13.5 m 3,13.5 v -13.5 m 3,13.5 v -13.5 m 3,13.5 v -13.5 m 3,13.5 v -13.5 m 3,13.5 v -13.5 m 3,13.5 v -13.5 m 3,13.5 v -13.5 m 3,13.5 v -24 m 3,24 v -13.5 m 3,13.5 v -13.5 m 3,13.5 v -13.5 m 3,13.5 v -13.5 m 3,13.5 v -13.5 m 3,13.5 v -13.5 m 3,13.5 v -13.5 m 3,13.5 v -13.5 m 3,13.5 v -13.5 m 3,13.5 v -24 m 3,24 v -13.5 m 3,13.5 v -13.5 m 3,13.5 v -13.5 m 3,13.5 v -13.5 m 3,13.5 v -13.5 m 3,13.5 v -13.5 m 3,13.5 v -13.5 m 3,13.5 v -13.5 m 3,13.5 v -13.5 m 3,13.5 v -24 m 3,24 v -13.5 m 3,13.5 v -13.5 m 3,13.5 v -13.5 m 3,13.5 v -13.5 m 3,13.5 v -13.5 m 3,13.5 v -13.5 m 3,13.5 v -13.5 m 3,13.5 v -13.5 m 3,13.5 v -13.5 m 3,13.5 v -24 m 3,24 v -13.5 m 3,13.5 v -13.5 m 3,13.5 v -13.5 m 3,13.5 v -13.5 m 3,13.5 v -13.5 m 3,13.5 v -13.5 m 3,13.5 v -13.5 m 3,13.5 v -13.5 m 3,13.5 v -13.5 m 3,13.5 v -24 m 3,24 v -13.5 m 3,13.5 v -13.5 m 3,13.5 v -13.5 m 3,13.5 v -13.5 m 3,13.5 v -13.5 m 3,13.5 v -13.5 m 3,13.5 v -13.5 m 3,13.5 v -13.5 m 3,13.5 v -13.5 m 3,13.5 v -24 m 3,24 v -13.5 m 3,13.5 v -13.5 m 3,13.5 v -13.5 m 3,13.5 v -13.5 m 3,13.5 v -13.5 m 3,13.5 v -13.5 m 3,13.5 v -13.5 m 3,13.5 v -13.5 m 3,13.5 v -13.5 m 3,13.5 v -24 m 3,24 v -13.5 m 3,13.5 v -13.5 m 3,13.5 v -13.5 m 3,13.5 v -13.5 m 3,13.5 v -13.5 m 3,13.5 v -13.5 m 3,13.5 v -13.5 m 3,13.5 v -13.5 m 3,13.5 v -13.5 m 3,13.5 v -24 m 3,24 v -13.5 m 3,13.5 v -13.5 m 3,13.5 v -13.5 m 3,13.5 v -13.5 m 3,13.5 v -13.5 m 3,13.5 v -13.5 m 3,13.5 v -13.5 m 3,13.5 v -13.5 m 3,13.5 v -13.5 m 3,13.5 v -24 m 3,24 v -13.5 m 3,13.5 v -13.5 m 3,13.5 v -13.5 m 3,13.5 v -13.5 m 3,13.5 v -13.5 m 3,13.5 v -13.5 m 3,13.5 v -13.5 m 3,13.5 v -13.5 m 3,13.5 v -13.5 m 3,13.5 v -24 m 3,24 v -13.5 m 3,13.5 v -13.5 m 3,13.5 v -13.5 m 3,13.5 v -13.5 m 3,13.5 v -13.5 m 3,13.5 v -13.5 m 3,13.5 v -13.5 m 3,13.5 v -13.5 m 3,13.5 v -13.5 m 3,13.5 v -24 m 3,24 v -13.5 m 3,13.5 v -13.5 m 3,13.5 v -13.5 m 3,13.5 v -13.5 m 3,13.5 v -13.5 m 3,13.5 v -13.5 m 3,13.5 v -13.5 m 3,13.5 v -13.5 m 3,13.5 v -13.5 m 3,13.5 v -24 m 3,24 v -13.5 m 3,13.5 v -13.5 m 3,13.5 v -13.5 m 3,13.5 v -13.5 m 3,13.5 v -13.5 m 3,13.5 v -13.5 m 3,13.5 v -13.5 m 3,13.5 v -13.5 m 3,13.5 v -13.5 m 3,13.5 v -24 m 3,24 v -13.5 m 3,13.5 v -13.5 m 3,13.5 v -13.5 m 3,13.5 v -13.5 m 3,13.5 v -13.5 m 3,13.5 v -13.5 m 3,13.5 v -13.5 m 3,13.5 v -13.5 m 3,13.5 v -13.5 m 3,13.5 v -24 m 3,24 v -13.5 m 3,13.5 v -13.5 m 3,13.5 v -13.5 m 3,13.5 v -13.5 m 3,13.5 v -13.5 m 3,13.5 v -13.5 m 3,13.5 v -13.5 m 3,13.5 v -13.5 m 3,13.5 v -13.5 m 3,13.5 v -24 m 3,24 v -13.5 m 3,13.5 v -13.5 m 3,13.5 v -13.5 m 3,13.5 v -13.5 m 3,13.5 v -13.5 m 3,13.5 v -13.5 m 3,13.5 v -13.5 m 3,13.5 v -13.5 m 3,13.5 v -13.5 m 3,13.5 v -24 m 3,24 v -13.5 m 3,13.5 v -13.5 m 3,13.5 v -13.5 m 3,13.5 v -13.5 m 3,13.5 v -13.5 m 3,13.5 v -13.5 m 3,13.5 v -13.5 m 3,13.5 v -13.5 m 3,13.5 v -13.5 m 3,13.5 v -24 m 3,24 v -13.5 m 3,13.5 v -13.5 m 3,13.5 v -13.5 m 3,13.5 v -13.5 m 3,13.5 v -13.5 m 3,13.5 v -13.5 m 3,13.5 v -13.5 m 3,13.5 v -13.5 m 3,13.5 v -13.5 m 3,13.5 v -24 m 3,24 v -13.5 m 3,13.5 v -13.5 m 3,13.5 v -13.5 m 3,13.5 v -13.5 m 3,13.5 v -13.5 m 3,13.5 v -13.5 m 3,13.5 v -13.5 m 3,13.5 v -13.5 m 3,13.5 v -13.5 m 3,13.5 v -24"
       id="path20" />
    <text
       style="font-size:15px;font-family:Arial;text-anchor:middle;stroke-width:3"
       x="40"
       y="410"
       id="text22">10</text>
    <text
       style="font-size:15px;font-family:Arial;text-anchor:middle;stroke-width:3"
       x="70"
       y="410"
       id="text24">9</text>
    <text
       style="font-size:15px;font-family:Arial;text-anchor:middle;stroke-width:3"
       x="100"
       y="410"
       id="text26">8</text>
    <text
       style="font-size:15px;font-family:Arial;text-anchor:middle;stroke-width:3"
       x="130"
       y="410"
       id="text28">7</text>
    <text
       style="font-size:15px;font-family:Arial;text-anchor:middle;stroke-width:3"
       x="160"
       y="410"
       id="text30">6</text>
    <text
       style="font-size:15px;font-family:Arial;text-anchor:middle;stroke-width:3"
       x="190"
       y="410"
       id="text32">5</text>
    <text
       style="font-size:15px;font-family:Arial;text-anchor:middle;stroke-width:3"
       x="220"
       y="410"
       id="text34">4</text>
    <text
       style="font-size:15px;font-family:Arial;text-anchor:middle;stroke-width:3"
       x="250"
       y="410"
       id="text36">3</text>
    <text
       style="font-size:15px;font-family:Arial;text-anchor:middle;stroke-width:3"
       x="280"
       y="410"
       id="text38">2</text>
    <text
       style="font-size:15px;font-family:Arial;text-anchor:middle;stroke-width:3"
       x="310"
       y="410"
       id="text40">1</text>
    <text
       style="font-size:15px;font-family:Arial;text-anchor:middle;stroke-width:3"
       x="340"
       y="410"
       id="text42">0</text>
    <text
       style="font-size:15px;font-family:Arial;text-anchor:middle;stroke-width:3"
       x="370"
       y="410"
       id="text44">1</text>
    <text
       style="font-size:15px;font-family:Arial;text-anchor:middle;stroke-width:3"
       x="400"
       y="410"
       id="text46">2</text>
    <text
       style="font-size:15px;font-family:Arial;text-anchor:middle;stroke-width:3"
       x="430"
       y="410"
       id="text48">3</text>
    <text
       style="font-size:15px;font-family:Arial;text-anchor:middle;stroke-width:3"
       x="460"
       y="410"
       id="text50">4</text>
    <text
       style="font-size:15px;font-family:Arial;text-anchor:middle;stroke-width:3"
       x="490"
       y="410"
       id="text52">5</text>
    <text
       style="font-size:15px;font-family:Arial;text-anchor:middle;stroke-width:3"
       x="520"
       y="410"
       id="text54">6</text>
    <text
       style="font-size:15px;font-family:Arial;text-anchor:middle;stroke-width:3"
       x="550"
       y="410"
       id="text56">7</text>
    <text
       style="font-size:15px;font-family:Arial;text-anchor:middle;stroke-width:3"
       x="580"
       y="410"
       id="text58">8</text>
    <text
       style="font-size:15px;font-family:Arial;text-anchor:middle;stroke-width:3"
       x="610"
       y="410"
       id="text60">9</text>
    <text
       style="font-size:15px;font-family:Arial;text-anchor:middle;stroke-width:3"
       x="640"
       y="410"
       id="text62">10</text>
    <text
       style="font-size:15px;font-family:Arial;text-anchor:middle;stroke-width:3"
       fill="#000000"
       x="-343.09503"
       y="100.89906"
       id="text64"
       transform="rotate(-85.852397)">0</text>
    <text
       style="font-size:15px;font-family:Arial;text-anchor:middle;stroke-width:3"
       fill="#000000"
       x="-277.22623"
       y="149.4437"
       id="text66"
       transform="rotate(-76.073493)">10</text>
    <text
       style="font-size:15px;font-family:Arial;text-anchor:middle;stroke-width:3"
       fill="#000000"
       x="-209.79918"
       y="178.31171"
       id="text68"
       transform="rotate(-68.723268)">20</text>
    <text
       style="font-size:15px;font-family:Arial;text-anchor:middle;stroke-width:3"
       fill="#000000"
       x="-120.67599"
       y="212.86133"
       id="text70"
       transform="rotate(-56.277851)">30</text>
    <text
       style="font-size:15px;font-family:Arial;text-anchor:middle;stroke-width:3"
       fill="#000000"
       x="-42.756958"
       y="221.94154"
       id="text72"
       transform="rotate(-47.865923)">40</text>
    <text
       style="font-size:15px;font-family:Arial;text-anchor:middle;stroke-width:3"
       fill="#000000"
       x="38.752235"
       y="220.81602"
       id="text74"
       transform="rotate(-39.029371)">50</text>
    <text
       style="font-size:15px;font-family:Arial;text-anchor:middle;stroke-width:3"
       fill="#000000"
       x="126.80241"
       y="203.33557"
       id="text76"
       transform="rotate(-27.90602)">60</text>
    <text
       style="font-size:15px;font-family:Arial;text-anchor:middle;stroke-width:3"
       fill="#000000"
       x="182.26508"
       y="198.26607"
       id="text78"
       transform="rotate(-25.504585)">70</text>
    <text
       style="font-size:15px;font-family:Arial;text-anchor:middle;stroke-width:3"
       fill="#000000"
       x="268.58145"
       y="150.4431"
       id="text80"
       transform="rotate(-12.477537)">80</text>
    <text
       style="font-size:15px;font-family:Arial;text-anchor:middle;stroke-width:3"
       fill="#000000"
       x="395.38449"
       y="-3.9329998"
       id="text84"
       transform="rotate(13.634795)">100</text>
    <text
       style="font-size:15px;font-family:Arial;text-anchor:middle;stroke-width:3"
       fill="#000000"
       x="439.62433"
       y="-51.710922"
       id="text86"
       transform="rotate(19.90648)">110</text>
    <text
       style="font-size:15px;font-family:Arial;text-anchor:middle;stroke-width:3"
       fill="#000000"
       x="465.00845"
       y="-144.17775"
       id="text88"
       transform="rotate(31.529579)">120</text>
    <text
       style="font-size:15px;font-family:Arial;text-anchor:middle;stroke-width:3"
       fill="#000000"
       x="481.79001"
       y="-223.10381"
       id="text90"
       transform="rotate(40.97751)">130</text>
    <text
       style="font-size:15px;font-family:Arial;text-anchor:middle;stroke-width:3"
       fill="#000000"
       x="546.83203"
       y="171.94736"
       id="text92">140</text>
    <text
       style="font-size:15px;font-family:Arial;text-anchor:middle;stroke-width:3"
       fill="#000000"
       x="479.57892"
       y="-376.94498"
       id="text94"
       transform="rotate(59.15722)">150</text>
    <text
       style="font-size:15px;font-family:Arial;text-anchor:middle;stroke-width:3"
       fill="#000000"
       x="432.37387"
       y="-477.41602"
       id="text96"
       transform="rotate(71.666598)">160</text>
    <text
       style="font-size:15px;font-family:Arial;text-anchor:middle;stroke-width:3"
       fill="#000000"
       x="400.34518"
       y="-541.37"
       id="text98"
       transform="rotate(80.354483)">170</text>
    <text
       style="font-size:15px;font-family:Arial;text-anchor:middle;stroke-width:3"
       fill="#000000"
       x="340.05811"
       y="-605.11475"
       id="text100"
       transform="rotate(90)">180</text>
    <text
       style="font-size:15px;font-family:Arial;text-anchor:middle;stroke-width:3"
       fill="#000000"
       x="-332.99222"
       y="128.39546"
       id="text102"
       transform="rotate(-86.093507)">180</text>
    <text
       style="font-size:15px;font-family:Arial;text-anchor:middle;stroke-width:3"
       fill="#000000"
       x="-274.23837"
       y="176.38622"
       id="text104"
       transform="rotate(-76.428435)">170</text>
    <text
       style="font-size:15px;font-family:Arial;text-anchor:middle;stroke-width:3"
       fill="#000000"
       x="-199.79813"
       y="215.67203"
       id="text106"
       transform="rotate(-66.395701)">160</text>
    <text
       style="font-size:15px;font-family:Arial;text-anchor:middle;stroke-width:3"
       fill="#000000"
       x="-107.90643"
       y="245.71846"
       id="text108"
       transform="rotate(-54.031416)">150</text>
    <text
       style="font-size:15px;font-family:Arial;text-anchor:middle;stroke-width:3"
       fill="#000000"
       x="-27.25897"
       y="252.9453"
       id="text110"
       transform="rotate(-44.91826)">140</text>
    <text
       style="font-size:15px;font-family:Arial;text-anchor:middle;stroke-width:3"
       fill="#000000"
       x="37.400127"
       y="250.20741"
       id="text112"
       transform="rotate(-39.460165)">130</text>
    <text
       style="font-size:15px;font-family:Arial;text-anchor:middle;stroke-width:3"
       fill="#000000"
       x="120.37144"
       y="237.19539"
       id="text114"
       transform="rotate(-29.6934)">120</text>
    <text
       style="font-size:15px;font-family:Arial;text-anchor:middle;stroke-width:3"
       fill="#000000"
       x="197.17865"
       y="212.4019"
       id="text116"
       transform="rotate(-20.816572)">110</text>
    <text
       style="font-size:15px;font-family:Arial;text-anchor:middle;stroke-width:3"
       fill="#000000"
       x="265.99133"
       y="180.86101"
       id="text118"
       transform="rotate(-12.747877)">100</text>
    <text
       style="font-size:15px;font-family:Arial;text-anchor:middle;stroke-width:3"
       fill="#000000"
       x="397.04782"
       y="40.05843"
       id="text122"
       transform="rotate(11.546754)">80</text>
    <text
       style="font-size:15px;font-family:Arial;text-anchor:middle;stroke-width:3"
       fill="#000000"
       x="436.26971"
       y="-57.143944"
       id="text124"
       transform="rotate(24.520372)">70</text>
    <text
       style="font-size:15px;font-family:Arial;text-anchor:middle;stroke-width:3"
       fill="#000000"
       x="461.33652"
       y="-134.32596"
       id="text126"
       transform="rotate(33.968928)">60</text>
    <text
       style="font-size:15px;font-family:Arial;text-anchor:middle;stroke-width:3"
       fill="#000000"
       x="484.36359"
       y="-189.34805"
       id="text128"
       transform="rotate(40.439701)">50</text>
    <text
       style="font-size:15px;font-family:Arial;text-anchor:middle;stroke-width:3"
       fill="#000000"
       x="523.85065"
       y="191.23096"
       id="text130">40</text>
    <text
       style="font-size:15px;font-family:Arial;text-anchor:middle;stroke-width:3"
       fill="#000000"
       x="466.98773"
       y="-362.41757"
       id="text132"
       transform="rotate(60.949975)">30</text>
    <text
       style="font-size:15px;font-family:Arial;text-anchor:middle;stroke-width:3"
       fill="#000000"
       x="471.54272"
       y="-406.50784"
       id="text134"
       transform="rotate(66.430236)">20</text>
    <text
       style="font-size:15px;font-family:Arial;text-anchor:middle;stroke-width:3"
       fill="#000000"
       x="412.59293"
       y="-502.25665"
       id="text136"
       transform="rotate(78.996)">10</text>
    <text
       style="font-size:15px;font-family:Arial;text-anchor:middle;stroke-width:3"
       fill="#000000"
       x="348.61261"
       y="-575.42114"
       id="text138"
       transform="rotate(90)">0</text>
    <rect
       style="fill:#000000;fill-opacity:0.539658;stroke:none;stroke-width:6.38739;stroke-linecap:round;stroke-linejoin:round"
       id="rect4527"
       width="26.418407"
       height="21.134956"
       x="326.8494"
       y="81.768936"
       ry="10.444104" />
    <text
       style="font-size:15px;font-family:Arial;text-anchor:middle;fill:#ffffff;stroke-width:3"
       fill="#000000"
       x="340"
       y="97.500031"
       id="text120">90</text>
    <circle
       fill="#00ffff"
       opacity="0.1"
       cx="340"
       cy="350"
       id="translation_handle"
       style="fill:#ff0000;stroke-width:3"
       r="45" />
  </g>
</svg>
